{
  "description": "项目配置文件",
  "packOptions": {
    "ignore": []
  },
  "setting": {
    "urlCheck": false,
    "es6": true,
    "enhance": true,
    "postcss": true,
    "preloadBackgroundData": false,
    "minified": true,
    "newFeature": true,
    "coverView": true,
    "nodeModules": true,
    "autoAudits": false,
    "showShadowRootInWxmlPanel": true,
    "scopeDataCheck": false,
    "uglifyFileName": false,
    "checkInvalidKey": true,
    "checkSiteMap": true,
    "uploadWithSourceMap": true,
    "compileHotReLoad": false,
    "lazyloadPlaceholderEnable": false,
    "useMultiFrameRuntime": true,
    "useApiHook": true,
    "useApiHostProcess": true,
    "babelSetting": {
      "ignore": [],
      "disablePlugins": [],
      "outputPath": ""
    },
    "enableEngineNative": false,
    "useIsolateContext": false,
    "userConfirmedBundleSwitch": false,
    "packNpmManually": false,
    "packNpmRelationList": [],
    "minifyWXSS": true,
    "disableUseStrict": false,
    "minifyWXML": true,
    "showES6CompileOption": false,
    "useCompilerPlugins": false
  },
  "compileType": "miniprogram",
  "libVersion": "2.14.0",
  "appid": "wx07269bdea918b15e",
  "projectname": "xin",
  "debugOptions": {
    "hidedInDevtools": []
  },
  "isGameTourist": false,
  "simulatorType": "wechat",
  "simulatorPluginLibVersion": {},
  "scripts": {
    "beforeCompile": "",
    "beforePreview": "",
    "beforeUpload": ""
  },
  "condition": {
    "search": {
      "list": []
    },
    "conversation": {
      "list": []
    },
    "plugin": {
      "list": []
    },
    "game": {
      "currentL": -1,
      "list": []
    },
    "gamePlugin": {
      "list": []
    },
    "miniprogram": {
      "list": [
        {
          "id": -1,
          "name": "OTP",
          "pathName": "pages/otp/otp",
          "query": "",
          "scene": null
        },
        {
          "id": 1,
          "name": "resetPassword",
          "pathName": "pages/resetPassword/resetPassword",
          "query": "otp=836730",
          "scene": null
        },
        {
          "id": -1,
          "name": "transactionsList",
          "pathName": "pages/transactionsList/transactionsList",
          "query": "",
          "scene": null
        },
        {
          "id": -1,
          "name": "pages/rank/rank",
          "pathName": "pages/rank/rank",
          "query": "",
          "scene": null
        },
        {
          "id": 4,
          "name": "linkBarcode",
          "pathName": "pages/linkBarcodeForm/linkBarcodeForm",
          "query": "barcode=GOOGLE",
          "scene": null
        }
      ]
    }
  }
}